{
  "project_info": {
    "project_number": "193271415978",
    "project_id": "packager-9c300",
    "storage_bucket": "packager-9c300.appspot.com"
  },
  "client": [
    {
      "client_info": {
        "mobilesdk_app_id": "1:193271415978:android:ed3313d4151356c81ffcd3",
        "android_client_info": {
          "package_name": "com.packager.packager"
        }
      },
      "oauth_client": [
        {
          "client_id": "193271415978-vvtsk45m06bm5630nkapgkuavmktqn2o.apps.googleusercontent.com",
          "client_type": 1,
          "android_info": {
            "package_name": "com.packager.packager",
            "certificate_hash": "6d3e2b9eeb083fa3f2fcbfc2131e0a3be7c20d6e"
          }
        },
        {
          "client_id": "193271415978-inn5k1mhpcopn24tdmli769lbouos3om.apps.googleusercontent.com",
          "client_type": 3
        }
      ],
      "api_key": [
        {
          "current_key": "AIzaSyBK_OW-xU_SJVQnw_94xSO6FWWuBc0KGoA"
        }
      ],
      "services": {
        "appinvite_service": {
          "other_platform_oauth_client": [
            {
              "client_id": "193271415978-inn5k1mhpcopn24tdmli769lbouos3om.apps.googleusercontent.com",
              "client_type": 3
            }
          ]
        }
      }
    }
  ],
  "configuration_version": "1"
}